-- Merging decision tree log ---
manifest
ADDED from /Users/kalyan/Desktop/sources/19910702-KalyanKannaiahgari-nycschools/app/src/main/AndroidManifest.xml:2:1-46:12
INJECTED from /Users/kalyan/Desktop/sources/19910702-KalyanKannaiahgari-nycschools/app/src/main/AndroidManifest.xml:2:1-46:12
INJECTED from /Users/kalyan/Desktop/sources/19910702-KalyanKannaiahgari-nycschools/app/src/main/AndroidManifest.xml:2:1-46:12
INJECTED from /Users/kalyan/Desktop/sources/19910702-KalyanKannaiahgari-nycschools/app/src/main/AndroidManifest.xml:2:1-46:12
MERGED from [androidx.databinding:viewbinding:4.0.2] /Users/kalyan/.gradle/caches/transforms-3/b70b8da197991f4be958c66b6dcd40bb/transformed/jetified-viewbinding-4.0.2/AndroidManifest.xml:17:1-22:12
MERGED from [androidx.multidex:multidex:2.0.0] /Users/kalyan/.gradle/caches/transforms-3/23109901657ff8acd9657bb6e925e964/transformed/multidex-2.0.0/AndroidManifest.xml:17:1-22:12
MERGED from [androidx.navigation:navigation-ui-ktx:2.3.5] /Users/kalyan/.gradle/caches/transforms-3/74bbac3d82093ce687e6760d3ec5d3a1/transformed/navigation-ui-ktx-2.3.5/AndroidManifest.xml:17:1-24:12
MERGED from [androidx.navigation:navigation-ui:2.3.5] /Users/kalyan/.gradle/caches/transforms-3/35301f32ac1a8b8760484ff64fff407a/transformed/navigation-ui-2.3.5/AndroidManifest.xml:17:1-24:12
MERGED from [com.google.android.material:material:1.3.0] /Users/kalyan/.gradle/caches/transforms-3/403bf00e0b97c33a72310917e02e0820/transformed/material-1.3.0/AndroidManifest.xml:17:1-24:12
MERGED from [com.google.dagger:dagger-android-support:2.21] /Users/kalyan/.gradle/caches/transforms-3/b441cac016dadba1262f92d5d7c62dd0/transformed/jetified-dagger-android-support-2.21/AndroidManifest.xml:17:1-22:12
MERGED from [androidx.constraintlayout:constraintlayout:2.0.1] /Users/kalyan/.gradle/caches/transforms-3/2b81b38a2c373cf7f79ab95c70267df9/transformed/constraintlayout-2.0.1/AndroidManifest.xml:2:1-11:12
MERGED from [androidx.appcompat:appcompat:1.2.0] /Users/kalyan/.gradle/caches/transforms-3/7c03829ec18d66826dd1e161de7b467d/transformed/appcompat-1.2.0/AndroidManifest.xml:17:1-24:12
MERGED from [androidx.navigation:navigation-fragment-ktx:2.3.5] /Users/kalyan/.gradle/caches/transforms-3/e920acd429cf147747c86034a8ced48b/transformed/navigation-fragment-ktx-2.3.5/AndroidManifest.xml:17:1-24:12
MERGED from [androidx.fragment:fragment-ktx:1.2.4] /Users/kalyan/.gradle/caches/transforms-3/b613b4b4ace0abb3c88c6b79db0e86d5/transformed/jetified-fragment-ktx-1.2.4/AndroidManifest.xml:17:1-24:12
MERGED from [androidx.navigation:navigation-runtime-ktx:2.3.5] /Users/kalyan/.gradle/caches/transforms-3/e1ecbf76f4eeb358185c304922da7fe4/transformed/navigation-runtime-ktx-2.3.5/AndroidManifest.xml:17:1-24:12
MERGED from [androidx.navigation:navigation-common-ktx:2.3.5] /Users/kalyan/.gradle/caches/transforms-3/f1b9cdef21b5cafced1bc3004acc63bb/transformed/navigation-common-ktx-2.3.5/AndroidManifest.xml:17:1-24:12
MERGED from [androidx.activity:activity-ktx:1.1.0] /Users/kalyan/.gradle/caches/transforms-3/36aca25d16bebea0147c829bde4ede28/transformed/jetified-activity-ktx-1.1.0/AndroidManifest.xml:17:1-24:12
MERGED from [androidx.core:core-ktx:1.2.0] /Users/kalyan/.gradle/caches/transforms-3/523e5f72e324facb2931c651b2b9630d/transformed/jetified-core-ktx-1.2.0/AndroidManifest.xml:2:1-9:12
MERGED from [androidx.cardview:cardview:1.0.0] /Users/kalyan/.gradle/caches/transforms-3/ee4c71f03aa2c49c84a2301989c0496e/transformed/cardview-1.0.0/AndroidManifest.xml:17:1-22:12
MERGED from [androidx.lifecycle:lifecycle-extensions:2.2.0] /Users/kalyan/.gradle/caches/transforms-3/cf30fcbda958d6d17f16093699d8605e/transformed/lifecycle-extensions-2.2.0/AndroidManifest.xml:17:1-27:12
MERGED from [androidx.lifecycle:lifecycle-livedata-ktx:2.3.1] /Users/kalyan/.gradle/caches/transforms-3/ed59152ebeab4361e3e1ecb1abc37648/transformed/jetified-lifecycle-livedata-ktx-2.3.1/AndroidManifest.xml:17:1-24:12
MERGED from [androidx.lifecycle:lifecycle-viewmodel-ktx:2.3.1] /Users/kalyan/.gradle/caches/transforms-3/3da5c035b272a0994d1beb85120e46f2/transformed/jetified-lifecycle-viewmodel-ktx-2.3.1/AndroidManifest.xml:17:1-24:12
MERGED from [com.google.dagger:dagger-android:2.21] /Users/kalyan/.gradle/caches/transforms-3/f5c6a69c0872ac92966aac7fa2138b67/transformed/jetified-dagger-android-2.21/AndroidManifest.xml:17:1-22:12
MERGED from [io.reactivex.rxjava2:rxandroid:2.0.2] /Users/kalyan/.gradle/caches/transforms-3/91a55b0222500650bdd837d3b0b3bd47/transformed/jetified-rxandroid-2.0.2/AndroidManifest.xml:15:1-21:12
MERGED from [androidx.legacy:legacy-support-v4:1.0.0] /Users/kalyan/.gradle/caches/transforms-3/3d7926666c701e2d60268ad79bf9ab8f/transformed/legacy-support-v4-1.0.0/AndroidManifest.xml:17:1-22:12
MERGED from [com.github.bumptech.glide:glide:4.12.0] /Users/kalyan/.gradle/caches/transforms-3/be4c6884e0d2c65d7e36e5c6ac61f531/transformed/jetified-glide-4.12.0/AndroidManifest.xml:2:1-12:12
MERGED from [androidx.legacy:legacy-support-core-ui:1.0.0] /Users/kalyan/.gradle/caches/transforms-3/ef2b339fcc8db50f6f7b4df8e5b8e17a/transformed/legacy-support-core-ui-1.0.0/AndroidManifest.xml:17:1-22:12
MERGED from [androidx.coordinatorlayout:coordinatorlayout:1.1.0] /Users/kalyan/.gradle/caches/transforms-3/bdc6b39eb103229d098c0d81defc8b66/transformed/coordinatorlayout-1.1.0/AndroidManifest.xml:17:1-24:12
MERGED from [androidx.appcompat:appcompat-resources:1.2.0] /Users/kalyan/.gradle/caches/transforms-3/8d55395823edfc96ddd1baaa37562b03/transformed/jetified-appcompat-resources-1.2.0/AndroidManifest.xml:17:1-24:12
MERGED from [androidx.vectordrawable:vectordrawable-animated:1.1.0] /Users/kalyan/.gradle/caches/transforms-3/298853276fbd0547d445067d5941c34d/transformed/vectordrawable-animated-1.1.0/AndroidManifest.xml:17:1-24:12
MERGED from [androidx.vectordrawable:vectordrawable:1.1.0] /Users/kalyan/.gradle/caches/transforms-3/e693a6c7369d949203fe105466d56e87/transformed/vectordrawable-1.1.0/AndroidManifest.xml:17:1-24:12
MERGED from [androidx.viewpager2:viewpager2:1.0.0] /Users/kalyan/.gradle/caches/transforms-3/14b0453b0b66b72e5ca89a81fc9e35c2/transformed/jetified-viewpager2-1.0.0/AndroidManifest.xml:17:1-24:12
MERGED from [androidx.lifecycle:lifecycle-process:2.2.0] /Users/kalyan/.gradle/caches/transforms-3/d71447b8886dc5f0aae44878c470fc12/transformed/jetified-lifecycle-process-2.2.0/AndroidManifest.xml:17:1-32:12
MERGED from [androidx.lifecycle:lifecycle-service:2.2.0] /Users/kalyan/.gradle/caches/transforms-3/de3ebd331d4aa9bd916bbdad69e88978/transformed/jetified-lifecycle-service-2.2.0/AndroidManifest.xml:17:1-24:12
MERGED from [androidx.dynamicanimation:dynamicanimation:1.0.0] /Users/kalyan/.gradle/caches/transforms-3/e13c118ad731f6988c31fb08c29d7079/transformed/dynamicanimation-1.0.0/AndroidManifest.xml:17:1-22:12
MERGED from [androidx.media:media:1.0.0] /Users/kalyan/.gradle/caches/transforms-3/e8dd23fa8039625d8c797f054da63c96/transformed/media-1.0.0/AndroidManifest.xml:17:1-22:12
MERGED from [androidx.legacy:legacy-support-core-utils:1.0.0] /Users/kalyan/.gradle/caches/transforms-3/f026862616309cd059f7d0956075850a/transformed/legacy-support-core-utils-1.0.0/AndroidManifest.xml:17:1-22:12
MERGED from [androidx.recyclerview:recyclerview:1.1.0] /Users/kalyan/.gradle/caches/transforms-3/ed7fbc938671fd858eda8fe3c996e21c/transformed/recyclerview-1.1.0/AndroidManifest.xml:17:1-24:12
MERGED from [androidx.navigation:navigation-fragment:2.3.5] /Users/kalyan/.gradle/caches/transforms-3/a7568e7bf1a15b4839886a239718d648/transformed/navigation-fragment-2.3.5/AndroidManifest.xml:17:1-24:12
MERGED from [androidx.fragment:fragment:1.2.4] /Users/kalyan/.gradle/caches/transforms-3/cdd9c286dbc16abf3c1a6c8336d7b83e/transformed/fragment-1.2.4/AndroidManifest.xml:17:1-24:12
MERGED from [androidx.drawerlayout:drawerlayout:1.1.1] /Users/kalyan/.gradle/caches/transforms-3/e27cb873651c83382deab0ae120468bd/transformed/drawerlayout-1.1.1/AndroidManifest.xml:17:1-24:12
MERGED from [androidx.viewpager:viewpager:1.0.0] /Users/kalyan/.gradle/caches/transforms-3/1f7a727efc8eb90cb8e7d6f6310167b5/transformed/viewpager-1.0.0/AndroidManifest.xml:17:1-22:12
MERGED from [androidx.slidingpanelayout:slidingpanelayout:1.0.0] /Users/kalyan/.gradle/caches/transforms-3/d8503713e002bd5aca22eed6668b775c/transformed/slidingpanelayout-1.0.0/AndroidManifest.xml:17:1-22:12
MERGED from [androidx.customview:customview:1.1.0] /Users/kalyan/.gradle/caches/transforms-3/42fb352f709b3841a2ac5a8263635bae/transformed/customview-1.1.0/AndroidManifest.xml:17:1-24:12
MERGED from [androidx.transition:transition:1.3.0] /Users/kalyan/.gradle/caches/transforms-3/1f03f42c870bb555ddab84e0b427b932/transformed/transition-1.3.0/AndroidManifest.xml:17:1-24:12
MERGED from [androidx.loader:loader:1.0.0] /Users/kalyan/.gradle/caches/transforms-3/1aa105dfc37cc2f2c39ec6ca114f2a60/transformed/loader-1.0.0/AndroidManifest.xml:17:1-22:12
MERGED from [androidx.swiperefreshlayout:swiperefreshlayout:1.0.0] /Users/kalyan/.gradle/caches/transforms-3/50d428aad0292bb13fb4e6826c4c9ee8/transformed/swiperefreshlayout-1.0.0/AndroidManifest.xml:17:1-22:12
MERGED from [androidx.asynclayoutinflater:asynclayoutinflater:1.0.0] /Users/kalyan/.gradle/caches/transforms-3/7a2ea0c0355388bedc0c856f3981591a/transformed/asynclayoutinflater-1.0.0/AndroidManifest.xml:17:1-22:12
MERGED from [androidx.navigation:navigation-runtime:2.3.5] /Users/kalyan/.gradle/caches/transforms-3/bdb6d3a2139067806b21540349c99613/transformed/navigation-runtime-2.3.5/AndroidManifest.xml:17:1-24:12
MERGED from [androidx.activity:activity:1.1.0] /Users/kalyan/.gradle/caches/transforms-3/ae28ddae058a6f3dea3a0754b9fc16d8/transformed/jetified-activity-1.1.0/AndroidManifest.xml:17:1-24:12
MERGED from [androidx.navigation:navigation-common:2.3.5] /Users/kalyan/.gradle/caches/transforms-3/5efcc1706e3b10a8fb6805c6d7a70944/transformed/navigation-common-2.3.5/AndroidManifest.xml:17:1-24:12
MERGED from [androidx.core:core:1.3.1] /Users/kalyan/.gradle/caches/transforms-3/78a931a756e40bf0a6127df06e538032/transformed/core-1.3.1/AndroidManifest.xml:17:1-26:12
MERGED from [androidx.lifecycle:lifecycle-runtime-ktx:2.2.0] /Users/kalyan/.gradle/caches/transforms-3/b68852aebb9d4c7ad4483720d5640193/transformed/jetified-lifecycle-runtime-ktx-2.2.0/AndroidManifest.xml:17:1-24:12
MERGED from [androidx.lifecycle:lifecycle-runtime:2.2.0] /Users/kalyan/.gradle/caches/transforms-3/dc65f739508dc6e0622647cf7a4705ba/transformed/lifecycle-runtime-2.2.0/AndroidManifest.xml:17:1-24:12
MERGED from [androidx.lifecycle:lifecycle-livedata:2.3.1] /Users/kalyan/.gradle/caches/transforms-3/b7919f8f6ae54b5e92b5acdb56961787/transformed/lifecycle-livedata-2.3.1/AndroidManifest.xml:17:1-24:12
MERGED from [androidx.lifecycle:lifecycle-livedata-core-ktx:2.3.1] /Users/kalyan/.gradle/caches/transforms-3/4daa4d363f741ecf92c29b5f113e7839/transformed/jetified-lifecycle-livedata-core-ktx-2.3.1/AndroidManifest.xml:17:1-24:12
MERGED from [androidx.lifecycle:lifecycle-viewmodel-savedstate:2.2.0] /Users/kalyan/.gradle/caches/transforms-3/fad468928d18f3f9352361826dfccbe1/transformed/jetified-lifecycle-viewmodel-savedstate-2.2.0/AndroidManifest.xml:17:1-24:12
MERGED from [androidx.lifecycle:lifecycle-livedata-core:2.3.1] /Users/kalyan/.gradle/caches/transforms-3/bd1899995e70c0e5cd8141fdf188d0e7/transformed/lifecycle-livedata-core-2.3.1/AndroidManifest.xml:17:1-24:12
MERGED from [androidx.arch.core:core-runtime:2.1.0] /Users/kalyan/.gradle/caches/transforms-3/cdd443631222030000d1a7f27e7ef56f/transformed/core-runtime-2.1.0/AndroidManifest.xml:17:1-24:12
MERGED from [androidx.savedstate:savedstate:1.0.0] /Users/kalyan/.gradle/caches/transforms-3/87489455d45b4e8082d8bf833d66004e/transformed/jetified-savedstate-1.0.0/AndroidManifest.xml:17:1-24:12
MERGED from [androidx.lifecycle:lifecycle-viewmodel:2.3.1] /Users/kalyan/.gradle/caches/transforms-3/a0be7985590145e502db327e92629b3d/transformed/lifecycle-viewmodel-2.3.1/AndroidManifest.xml:17:1-24:12
MERGED from [com.github.bumptech.glide:gifdecoder:4.12.0] /Users/kalyan/.gradle/caches/transforms-3/390f55402124fb841dc2a066fb2a236e/transformed/jetified-gifdecoder-4.12.0/AndroidManifest.xml:2:1-11:12
MERGED from [androidx.exifinterface:exifinterface:1.2.0] /Users/kalyan/.gradle/caches/transforms-3/d031bc7738248c1d54da2eed59376879/transformed/exifinterface-1.2.0/AndroidManifest.xml:17:1-24:12
MERGED from [androidx.versionedparcelable:versionedparcelable:1.1.0] /Users/kalyan/.gradle/caches/transforms-3/07ee5ca89ba5268e842c9373de933cd8/transformed/versionedparcelable-1.1.0/AndroidManifest.xml:17:1-27:12
MERGED from [androidx.documentfile:documentfile:1.0.0] /Users/kalyan/.gradle/caches/transforms-3/708b40dd8c215e8bf00436275ede3d90/transformed/documentfile-1.0.0/AndroidManifest.xml:17:1-22:12
MERGED from [androidx.localbroadcastmanager:localbroadcastmanager:1.0.0] /Users/kalyan/.gradle/caches/transforms-3/745d319d1cc30c824f9f189be8d1e5c9/transformed/localbroadcastmanager-1.0.0/AndroidManifest.xml:17:1-22:12
MERGED from [androidx.print:print:1.0.0] /Users/kalyan/.gradle/caches/transforms-3/89e2ec7243d3e50b3cf4c10cbe20c115/transformed/print-1.0.0/AndroidManifest.xml:17:1-22:12
MERGED from [androidx.interpolator:interpolator:1.0.0] /Users/kalyan/.gradle/caches/transforms-3/eeb53713ccbeae8391235ff6932b1471/transformed/interpolator-1.0.0/AndroidManifest.xml:17:1-22:12
MERGED from [androidx.cursoradapter:cursoradapter:1.0.0] /Users/kalyan/.gradle/caches/transforms-3/be9b2eecb83e92fdafe8b974d770efba/transformed/cursoradapter-1.0.0/AndroidManifest.xml:17:1-22:12
MERGED from [androidx.annotation:annotation-experimental:1.0.0] /Users/kalyan/.gradle/caches/transforms-3/2b704759e44d04034bf9a309cb35cd05/transformed/jetified-annotation-experimental-1.0.0/AndroidManifest.xml:17:1-24:12
INJECTED from /Users/kalyan/Desktop/sources/19910702-KalyanKannaiahgari-nycschools/app/src/main/AndroidManifest.xml:2:1-46:12
INJECTED from /Users/kalyan/Desktop/sources/19910702-KalyanKannaiahgari-nycschools/app/src/main/AndroidManifest.xml:2:1-46:12
INJECTED from /Users/kalyan/Desktop/sources/19910702-KalyanKannaiahgari-nycschools/app/src/main/AndroidManifest.xml:2:1-46:12
	package
		ADDED from /Users/kalyan/Desktop/sources/19910702-KalyanKannaiahgari-nycschools/app/src/main/AndroidManifest.xml:3:9-36
		INJECTED from /Users/kalyan/Desktop/sources/19910702-KalyanKannaiahgari-nycschools/app/src/main/AndroidManifest.xml
		INJECTED from /Users/kalyan/Desktop/sources/19910702-KalyanKannaiahgari-nycschools/app/src/main/AndroidManifest.xml
	android:versionName
		INJECTED from /Users/kalyan/Desktop/sources/19910702-KalyanKannaiahgari-nycschools/app/src/main/AndroidManifest.xml
		ADDED from /Users/kalyan/Desktop/sources/19910702-KalyanKannaiahgari-nycschools/app/src/main/AndroidManifest.xml:2:1-46:12
		INJECTED from /Users/kalyan/Desktop/sources/19910702-KalyanKannaiahgari-nycschools/app/src/main/AndroidManifest.xml
	android:versionCode
		INJECTED from /Users/kalyan/Desktop/sources/19910702-KalyanKannaiahgari-nycschools/app/src/main/AndroidManifest.xml
		ADDED from /Users/kalyan/Desktop/sources/19910702-KalyanKannaiahgari-nycschools/app/src/main/AndroidManifest.xml:2:1-46:12
		INJECTED from /Users/kalyan/Desktop/sources/19910702-KalyanKannaiahgari-nycschools/app/src/main/AndroidManifest.xml
	xmlns:android
		ADDED from /Users/kalyan/Desktop/sources/19910702-KalyanKannaiahgari-nycschools/app/src/main/AndroidManifest.xml:2:11-69
uses-permission#android.permission.ACCESS_NETWORK_STATE
ADDED from /Users/kalyan/Desktop/sources/19910702-KalyanKannaiahgari-nycschools/app/src/main/AndroidManifest.xml:5:5-79
	android:name
		ADDED from /Users/kalyan/Desktop/sources/19910702-KalyanKannaiahgari-nycschools/app/src/main/AndroidManifest.xml:5:22-76
uses-permission#android.permission.INTERNET
ADDED from /Users/kalyan/Desktop/sources/19910702-KalyanKannaiahgari-nycschools/app/src/main/AndroidManifest.xml:6:5-67
	android:name
		ADDED from /Users/kalyan/Desktop/sources/19910702-KalyanKannaiahgari-nycschools/app/src/main/AndroidManifest.xml:6:22-64
uses-permission#android.permission.WRITE_EXTERNAL_STORAGE
ADDED from /Users/kalyan/Desktop/sources/19910702-KalyanKannaiahgari-nycschools/app/src/main/AndroidManifest.xml:7:5-81
	android:name
		ADDED from /Users/kalyan/Desktop/sources/19910702-KalyanKannaiahgari-nycschools/app/src/main/AndroidManifest.xml:7:22-78
uses-permission#android.permission.READ_EXTERNAL_STORAGE
ADDED from /Users/kalyan/Desktop/sources/19910702-KalyanKannaiahgari-nycschools/app/src/main/AndroidManifest.xml:8:5-80
	android:name
		ADDED from /Users/kalyan/Desktop/sources/19910702-KalyanKannaiahgari-nycschools/app/src/main/AndroidManifest.xml:8:22-77
application
ADDED from /Users/kalyan/Desktop/sources/19910702-KalyanKannaiahgari-nycschools/app/src/main/AndroidManifest.xml:10:5-44:19
MERGED from [com.google.android.material:material:1.3.0] /Users/kalyan/.gradle/caches/transforms-3/403bf00e0b97c33a72310917e02e0820/transformed/material-1.3.0/AndroidManifest.xml:22:5-20
MERGED from [com.google.android.material:material:1.3.0] /Users/kalyan/.gradle/caches/transforms-3/403bf00e0b97c33a72310917e02e0820/transformed/material-1.3.0/AndroidManifest.xml:22:5-20
MERGED from [androidx.constraintlayout:constraintlayout:2.0.1] /Users/kalyan/.gradle/caches/transforms-3/2b81b38a2c373cf7f79ab95c70267df9/transformed/constraintlayout-2.0.1/AndroidManifest.xml:9:5-20
MERGED from [androidx.constraintlayout:constraintlayout:2.0.1] /Users/kalyan/.gradle/caches/transforms-3/2b81b38a2c373cf7f79ab95c70267df9/transformed/constraintlayout-2.0.1/AndroidManifest.xml:9:5-20
MERGED from [androidx.lifecycle:lifecycle-extensions:2.2.0] /Users/kalyan/.gradle/caches/transforms-3/cf30fcbda958d6d17f16093699d8605e/transformed/lifecycle-extensions-2.2.0/AndroidManifest.xml:24:5-25:19
MERGED from [androidx.lifecycle:lifecycle-extensions:2.2.0] /Users/kalyan/.gradle/caches/transforms-3/cf30fcbda958d6d17f16093699d8605e/transformed/lifecycle-extensions-2.2.0/AndroidManifest.xml:24:5-25:19
MERGED from [com.github.bumptech.glide:glide:4.12.0] /Users/kalyan/.gradle/caches/transforms-3/be4c6884e0d2c65d7e36e5c6ac61f531/transformed/jetified-glide-4.12.0/AndroidManifest.xml:10:5-20
MERGED from [com.github.bumptech.glide:glide:4.12.0] /Users/kalyan/.gradle/caches/transforms-3/be4c6884e0d2c65d7e36e5c6ac61f531/transformed/jetified-glide-4.12.0/AndroidManifest.xml:10:5-20
MERGED from [androidx.lifecycle:lifecycle-process:2.2.0] /Users/kalyan/.gradle/caches/transforms-3/d71447b8886dc5f0aae44878c470fc12/transformed/jetified-lifecycle-process-2.2.0/AndroidManifest.xml:24:5-30:19
MERGED from [androidx.lifecycle:lifecycle-process:2.2.0] /Users/kalyan/.gradle/caches/transforms-3/d71447b8886dc5f0aae44878c470fc12/transformed/jetified-lifecycle-process-2.2.0/AndroidManifest.xml:24:5-30:19
MERGED from [androidx.core:core:1.3.1] /Users/kalyan/.gradle/caches/transforms-3/78a931a756e40bf0a6127df06e538032/transformed/core-1.3.1/AndroidManifest.xml:24:5-89
MERGED from [androidx.core:core:1.3.1] /Users/kalyan/.gradle/caches/transforms-3/78a931a756e40bf0a6127df06e538032/transformed/core-1.3.1/AndroidManifest.xml:24:5-89
MERGED from [com.github.bumptech.glide:gifdecoder:4.12.0] /Users/kalyan/.gradle/caches/transforms-3/390f55402124fb841dc2a066fb2a236e/transformed/jetified-gifdecoder-4.12.0/AndroidManifest.xml:9:5-20
MERGED from [com.github.bumptech.glide:gifdecoder:4.12.0] /Users/kalyan/.gradle/caches/transforms-3/390f55402124fb841dc2a066fb2a236e/transformed/jetified-gifdecoder-4.12.0/AndroidManifest.xml:9:5-20
MERGED from [androidx.versionedparcelable:versionedparcelable:1.1.0] /Users/kalyan/.gradle/caches/transforms-3/07ee5ca89ba5268e842c9373de933cd8/transformed/versionedparcelable-1.1.0/AndroidManifest.xml:24:5-25:19
MERGED from [androidx.versionedparcelable:versionedparcelable:1.1.0] /Users/kalyan/.gradle/caches/transforms-3/07ee5ca89ba5268e842c9373de933cd8/transformed/versionedparcelable-1.1.0/AndroidManifest.xml:24:5-25:19
	android:requestLegacyExternalStorage
		ADDED from /Users/kalyan/Desktop/sources/19910702-KalyanKannaiahgari-nycschools/app/src/main/AndroidManifest.xml:15:13-56
	android:appComponentFactory
		ADDED from [androidx.core:core:1.3.1] /Users/kalyan/.gradle/caches/transforms-3/78a931a756e40bf0a6127df06e538032/transformed/core-1.3.1/AndroidManifest.xml:24:18-86
	android:supportsRtl
		ADDED from /Users/kalyan/Desktop/sources/19910702-KalyanKannaiahgari-nycschools/app/src/main/AndroidManifest.xml:17:13-39
	android:label
		ADDED from /Users/kalyan/Desktop/sources/19910702-KalyanKannaiahgari-nycschools/app/src/main/AndroidManifest.xml:14:13-45
	android:roundIcon
		ADDED from /Users/kalyan/Desktop/sources/19910702-KalyanKannaiahgari-nycschools/app/src/main/AndroidManifest.xml:16:13-49
	android:icon
		ADDED from /Users/kalyan/Desktop/sources/19910702-KalyanKannaiahgari-nycschools/app/src/main/AndroidManifest.xml:13:13-44
	android:allowBackup
		ADDED from /Users/kalyan/Desktop/sources/19910702-KalyanKannaiahgari-nycschools/app/src/main/AndroidManifest.xml:12:13-40
	android:theme
		ADDED from /Users/kalyan/Desktop/sources/19910702-KalyanKannaiahgari-nycschools/app/src/main/AndroidManifest.xml:18:13-44
	android:name
		ADDED from /Users/kalyan/Desktop/sources/19910702-KalyanKannaiahgari-nycschools/app/src/main/AndroidManifest.xml:11:13-60
activity#io.app.nycschools.activties.NycSchoolDataActivity
ADDED from /Users/kalyan/Desktop/sources/19910702-KalyanKannaiahgari-nycschools/app/src/main/AndroidManifest.xml:20:9-28:20
	android:label
		ADDED from /Users/kalyan/Desktop/sources/19910702-KalyanKannaiahgari-nycschools/app/src/main/AndroidManifest.xml:23:17-49
	android:exported
		ADDED from /Users/kalyan/Desktop/sources/19910702-KalyanKannaiahgari-nycschools/app/src/main/AndroidManifest.xml:22:17-41
	android:theme
		ADDED from /Users/kalyan/Desktop/sources/19910702-KalyanKannaiahgari-nycschools/app/src/main/AndroidManifest.xml:24:17-60
	android:name
		ADDED from /Users/kalyan/Desktop/sources/19910702-KalyanKannaiahgari-nycschools/app/src/main/AndroidManifest.xml:21:17-64
meta-data#android.app.lib_name
ADDED from /Users/kalyan/Desktop/sources/19910702-KalyanKannaiahgari-nycschools/app/src/main/AndroidManifest.xml:25:13-27:40
	android:value
		ADDED from /Users/kalyan/Desktop/sources/19910702-KalyanKannaiahgari-nycschools/app/src/main/AndroidManifest.xml:27:21-37
	android:name
		ADDED from /Users/kalyan/Desktop/sources/19910702-KalyanKannaiahgari-nycschools/app/src/main/AndroidManifest.xml:26:21-56
activity#io.app.nycschools.activties.SplashActivity
ADDED from /Users/kalyan/Desktop/sources/19910702-KalyanKannaiahgari-nycschools/app/src/main/AndroidManifest.xml:30:9-39:20
	android:exported
		ADDED from /Users/kalyan/Desktop/sources/19910702-KalyanKannaiahgari-nycschools/app/src/main/AndroidManifest.xml:32:17-40
	android:theme
		ADDED from /Users/kalyan/Desktop/sources/19910702-KalyanKannaiahgari-nycschools/app/src/main/AndroidManifest.xml:33:17-57
	android:name
		ADDED from /Users/kalyan/Desktop/sources/19910702-KalyanKannaiahgari-nycschools/app/src/main/AndroidManifest.xml:31:17-57
intent-filter#action:name:android.intent.action.MAIN+category:name:android.intent.category.LAUNCHER
ADDED from /Users/kalyan/Desktop/sources/19910702-KalyanKannaiahgari-nycschools/app/src/main/AndroidManifest.xml:34:13-38:29
action#android.intent.action.MAIN
ADDED from /Users/kalyan/Desktop/sources/19910702-KalyanKannaiahgari-nycschools/app/src/main/AndroidManifest.xml:35:17-69
	android:name
		ADDED from /Users/kalyan/Desktop/sources/19910702-KalyanKannaiahgari-nycschools/app/src/main/AndroidManifest.xml:35:25-66
category#android.intent.category.LAUNCHER
ADDED from /Users/kalyan/Desktop/sources/19910702-KalyanKannaiahgari-nycschools/app/src/main/AndroidManifest.xml:37:17-77
	android:name
		ADDED from /Users/kalyan/Desktop/sources/19910702-KalyanKannaiahgari-nycschools/app/src/main/AndroidManifest.xml:37:27-74
activity#io.app.nycschools.activties.NycSchoolsListActivity
ADDED from /Users/kalyan/Desktop/sources/19910702-KalyanKannaiahgari-nycschools/app/src/main/AndroidManifest.xml:41:9-43:43
	android:exported
		ADDED from /Users/kalyan/Desktop/sources/19910702-KalyanKannaiahgari-nycschools/app/src/main/AndroidManifest.xml:43:17-41
	android:name
		ADDED from /Users/kalyan/Desktop/sources/19910702-KalyanKannaiahgari-nycschools/app/src/main/AndroidManifest.xml:42:17-65
uses-sdk
INJECTED from /Users/kalyan/Desktop/sources/19910702-KalyanKannaiahgari-nycschools/app/src/main/AndroidManifest.xml reason: use-sdk injection requested
INJECTED from /Users/kalyan/Desktop/sources/19910702-KalyanKannaiahgari-nycschools/app/src/main/AndroidManifest.xml
INJECTED from /Users/kalyan/Desktop/sources/19910702-KalyanKannaiahgari-nycschools/app/src/main/AndroidManifest.xml
MERGED from [androidx.databinding:viewbinding:4.0.2] /Users/kalyan/.gradle/caches/transforms-3/b70b8da197991f4be958c66b6dcd40bb/transformed/jetified-viewbinding-4.0.2/AndroidManifest.xml:20:5-44
MERGED from [androidx.databinding:viewbinding:4.0.2] /Users/kalyan/.gradle/caches/transforms-3/b70b8da197991f4be958c66b6dcd40bb/transformed/jetified-viewbinding-4.0.2/AndroidManifest.xml:20:5-44
MERGED from [androidx.multidex:multidex:2.0.0] /Users/kalyan/.gradle/caches/transforms-3/23109901657ff8acd9657bb6e925e964/transformed/multidex-2.0.0/AndroidManifest.xml:20:5-43
MERGED from [androidx.multidex:multidex:2.0.0] /Users/kalyan/.gradle/caches/transforms-3/23109901657ff8acd9657bb6e925e964/transformed/multidex-2.0.0/AndroidManifest.xml:20:5-43
MERGED from [androidx.navigation:navigation-ui-ktx:2.3.5] /Users/kalyan/.gradle/caches/transforms-3/74bbac3d82093ce687e6760d3ec5d3a1/transformed/navigation-ui-ktx-2.3.5/AndroidManifest.xml:20:5-22:41
MERGED from [androidx.navigation:navigation-ui-ktx:2.3.5] /Users/kalyan/.gradle/caches/transforms-3/74bbac3d82093ce687e6760d3ec5d3a1/transformed/navigation-ui-ktx-2.3.5/AndroidManifest.xml:20:5-22:41
MERGED from [androidx.navigation:navigation-ui:2.3.5] /Users/kalyan/.gradle/caches/transforms-3/35301f32ac1a8b8760484ff64fff407a/transformed/navigation-ui-2.3.5/AndroidManifest.xml:20:5-22:41
MERGED from [androidx.navigation:navigation-ui:2.3.5] /Users/kalyan/.gradle/caches/transforms-3/35301f32ac1a8b8760484ff64fff407a/transformed/navigation-ui-2.3.5/AndroidManifest.xml:20:5-22:41
MERGED from [com.google.android.material:material:1.3.0] /Users/kalyan/.gradle/caches/transforms-3/403bf00e0b97c33a72310917e02e0820/transformed/material-1.3.0/AndroidManifest.xml:20:5-44
MERGED from [com.google.android.material:material:1.3.0] /Users/kalyan/.gradle/caches/transforms-3/403bf00e0b97c33a72310917e02e0820/transformed/material-1.3.0/AndroidManifest.xml:20:5-44
MERGED from [com.google.dagger:dagger-android-support:2.21] /Users/kalyan/.gradle/caches/transforms-3/b441cac016dadba1262f92d5d7c62dd0/transformed/jetified-dagger-android-support-2.21/AndroidManifest.xml:20:5-44
MERGED from [com.google.dagger:dagger-android-support:2.21] /Users/kalyan/.gradle/caches/transforms-3/b441cac016dadba1262f92d5d7c62dd0/transformed/jetified-dagger-android-support-2.21/AndroidManifest.xml:20:5-44
MERGED from [androidx.constraintlayout:constraintlayout:2.0.1] /Users/kalyan/.gradle/caches/transforms-3/2b81b38a2c373cf7f79ab95c70267df9/transformed/constraintlayout-2.0.1/AndroidManifest.xml:5:5-7:41
MERGED from [androidx.constraintlayout:constraintlayout:2.0.1] /Users/kalyan/.gradle/caches/transforms-3/2b81b38a2c373cf7f79ab95c70267df9/transformed/constraintlayout-2.0.1/AndroidManifest.xml:5:5-7:41
MERGED from [androidx.appcompat:appcompat:1.2.0] /Users/kalyan/.gradle/caches/transforms-3/7c03829ec18d66826dd1e161de7b467d/transformed/appcompat-1.2.0/AndroidManifest.xml:20:5-22:41
MERGED from [androidx.appcompat:appcompat:1.2.0] /Users/kalyan/.gradle/caches/transforms-3/7c03829ec18d66826dd1e161de7b467d/transformed/appcompat-1.2.0/AndroidManifest.xml:20:5-22:41
MERGED from [androidx.navigation:navigation-fragment-ktx:2.3.5] /Users/kalyan/.gradle/caches/transforms-3/e920acd429cf147747c86034a8ced48b/transformed/navigation-fragment-ktx-2.3.5/AndroidManifest.xml:20:5-22:41
MERGED from [androidx.navigation:navigation-fragment-ktx:2.3.5] /Users/kalyan/.gradle/caches/transforms-3/e920acd429cf147747c86034a8ced48b/transformed/navigation-fragment-ktx-2.3.5/AndroidManifest.xml:20:5-22:41
MERGED from [androidx.fragment:fragment-ktx:1.2.4] /Users/kalyan/.gradle/caches/transforms-3/b613b4b4ace0abb3c88c6b79db0e86d5/transformed/jetified-fragment-ktx-1.2.4/AndroidManifest.xml:20:5-22:41
MERGED from [androidx.fragment:fragment-ktx:1.2.4] /Users/kalyan/.gradle/caches/transforms-3/b613b4b4ace0abb3c88c6b79db0e86d5/transformed/jetified-fragment-ktx-1.2.4/AndroidManifest.xml:20:5-22:41
MERGED from [androidx.navigation:navigation-runtime-ktx:2.3.5] /Users/kalyan/.gradle/caches/transforms-3/e1ecbf76f4eeb358185c304922da7fe4/transformed/navigation-runtime-ktx-2.3.5/AndroidManifest.xml:20:5-22:41
MERGED from [androidx.navigation:navigation-runtime-ktx:2.3.5] /Users/kalyan/.gradle/caches/transforms-3/e1ecbf76f4eeb358185c304922da7fe4/transformed/navigation-runtime-ktx-2.3.5/AndroidManifest.xml:20:5-22:41
MERGED from [androidx.navigation:navigation-common-ktx:2.3.5] /Users/kalyan/.gradle/caches/transforms-3/f1b9cdef21b5cafced1bc3004acc63bb/transformed/navigation-common-ktx-2.3.5/AndroidManifest.xml:20:5-22:41
MERGED from [androidx.navigation:navigation-common-ktx:2.3.5] /Users/kalyan/.gradle/caches/transforms-3/f1b9cdef21b5cafced1bc3004acc63bb/transformed/navigation-common-ktx-2.3.5/AndroidManifest.xml:20:5-22:41
MERGED from [androidx.activity:activity-ktx:1.1.0] /Users/kalyan/.gradle/caches/transforms-3/36aca25d16bebea0147c829bde4ede28/transformed/jetified-activity-ktx-1.1.0/AndroidManifest.xml:20:5-22:41
MERGED from [androidx.activity:activity-ktx:1.1.0] /Users/kalyan/.gradle/caches/transforms-3/36aca25d16bebea0147c829bde4ede28/transformed/jetified-activity-ktx-1.1.0/AndroidManifest.xml:20:5-22:41
MERGED from [androidx.core:core-ktx:1.2.0] /Users/kalyan/.gradle/caches/transforms-3/523e5f72e324facb2931c651b2b9630d/transformed/jetified-core-ktx-1.2.0/AndroidManifest.xml:5:5-7:41
MERGED from [androidx.core:core-ktx:1.2.0] /Users/kalyan/.gradle/caches/transforms-3/523e5f72e324facb2931c651b2b9630d/transformed/jetified-core-ktx-1.2.0/AndroidManifest.xml:5:5-7:41
MERGED from [androidx.cardview:cardview:1.0.0] /Users/kalyan/.gradle/caches/transforms-3/ee4c71f03aa2c49c84a2301989c0496e/transformed/cardview-1.0.0/AndroidManifest.xml:20:5-44
MERGED from [androidx.cardview:cardview:1.0.0] /Users/kalyan/.gradle/caches/transforms-3/ee4c71f03aa2c49c84a2301989c0496e/transformed/cardview-1.0.0/AndroidManifest.xml:20:5-44
MERGED from [androidx.lifecycle:lifecycle-extensions:2.2.0] /Users/kalyan/.gradle/caches/transforms-3/cf30fcbda958d6d17f16093699d8605e/transformed/lifecycle-extensions-2.2.0/AndroidManifest.xml:20:5-22:41
MERGED from [androidx.lifecycle:lifecycle-extensions:2.2.0] /Users/kalyan/.gradle/caches/transforms-3/cf30fcbda958d6d17f16093699d8605e/transformed/lifecycle-extensions-2.2.0/AndroidManifest.xml:20:5-22:41
MERGED from [androidx.lifecycle:lifecycle-livedata-ktx:2.3.1] /Users/kalyan/.gradle/caches/transforms-3/ed59152ebeab4361e3e1ecb1abc37648/transformed/jetified-lifecycle-livedata-ktx-2.3.1/AndroidManifest.xml:20:5-22:41
MERGED from [androidx.lifecycle:lifecycle-livedata-ktx:2.3.1] /Users/kalyan/.gradle/caches/transforms-3/ed59152ebeab4361e3e1ecb1abc37648/transformed/jetified-lifecycle-livedata-ktx-2.3.1/AndroidManifest.xml:20:5-22:41
MERGED from [androidx.lifecycle:lifecycle-viewmodel-ktx:2.3.1] /Users/kalyan/.gradle/caches/transforms-3/3da5c035b272a0994d1beb85120e46f2/transformed/jetified-lifecycle-viewmodel-ktx-2.3.1/AndroidManifest.xml:20:5-22:41
MERGED from [androidx.lifecycle:lifecycle-viewmodel-ktx:2.3.1] /Users/kalyan/.gradle/caches/transforms-3/3da5c035b272a0994d1beb85120e46f2/transformed/jetified-lifecycle-viewmodel-ktx-2.3.1/AndroidManifest.xml:20:5-22:41
MERGED from [com.google.dagger:dagger-android:2.21] /Users/kalyan/.gradle/caches/transforms-3/f5c6a69c0872ac92966aac7fa2138b67/transformed/jetified-dagger-android-2.21/AndroidManifest.xml:20:5-44
MERGED from [com.google.dagger:dagger-android:2.21] /Users/kalyan/.gradle/caches/transforms-3/f5c6a69c0872ac92966aac7fa2138b67/transformed/jetified-dagger-android-2.21/AndroidManifest.xml:20:5-44
MERGED from [io.reactivex.rxjava2:rxandroid:2.0.2] /Users/kalyan/.gradle/caches/transforms-3/91a55b0222500650bdd837d3b0b3bd47/transformed/jetified-rxandroid-2.0.2/AndroidManifest.xml:19:5-43
MERGED from [io.reactivex.rxjava2:rxandroid:2.0.2] /Users/kalyan/.gradle/caches/transforms-3/91a55b0222500650bdd837d3b0b3bd47/transformed/jetified-rxandroid-2.0.2/AndroidManifest.xml:19:5-43
MERGED from [androidx.legacy:legacy-support-v4:1.0.0] /Users/kalyan/.gradle/caches/transforms-3/3d7926666c701e2d60268ad79bf9ab8f/transformed/legacy-support-v4-1.0.0/AndroidManifest.xml:20:5-44
MERGED from [androidx.legacy:legacy-support-v4:1.0.0] /Users/kalyan/.gradle/caches/transforms-3/3d7926666c701e2d60268ad79bf9ab8f/transformed/legacy-support-v4-1.0.0/AndroidManifest.xml:20:5-44
MERGED from [com.github.bumptech.glide:glide:4.12.0] /Users/kalyan/.gradle/caches/transforms-3/be4c6884e0d2c65d7e36e5c6ac61f531/transformed/jetified-glide-4.12.0/AndroidManifest.xml:6:5-8:41
MERGED from [com.github.bumptech.glide:glide:4.12.0] /Users/kalyan/.gradle/caches/transforms-3/be4c6884e0d2c65d7e36e5c6ac61f531/transformed/jetified-glide-4.12.0/AndroidManifest.xml:6:5-8:41
MERGED from [androidx.legacy:legacy-support-core-ui:1.0.0] /Users/kalyan/.gradle/caches/transforms-3/ef2b339fcc8db50f6f7b4df8e5b8e17a/transformed/legacy-support-core-ui-1.0.0/AndroidManifest.xml:20:5-44
MERGED from [androidx.legacy:legacy-support-core-ui:1.0.0] /Users/kalyan/.gradle/caches/transforms-3/ef2b339fcc8db50f6f7b4df8e5b8e17a/transformed/legacy-support-core-ui-1.0.0/AndroidManifest.xml:20:5-44
MERGED from [androidx.coordinatorlayout:coordinatorlayout:1.1.0] /Users/kalyan/.gradle/caches/transforms-3/bdc6b39eb103229d098c0d81defc8b66/transformed/coordinatorlayout-1.1.0/AndroidManifest.xml:20:5-22:41
MERGED from [androidx.coordinatorlayout:coordinatorlayout:1.1.0] /Users/kalyan/.gradle/caches/transforms-3/bdc6b39eb103229d098c0d81defc8b66/transformed/coordinatorlayout-1.1.0/AndroidManifest.xml:20:5-22:41
MERGED from [androidx.appcompat:appcompat-resources:1.2.0] /Users/kalyan/.gradle/caches/transforms-3/8d55395823edfc96ddd1baaa37562b03/transformed/jetified-appcompat-resources-1.2.0/AndroidManifest.xml:20:5-22:41
MERGED from [androidx.appcompat:appcompat-resources:1.2.0] /Users/kalyan/.gradle/caches/transforms-3/8d55395823edfc96ddd1baaa37562b03/transformed/jetified-appcompat-resources-1.2.0/AndroidManifest.xml:20:5-22:41
MERGED from [androidx.vectordrawable:vectordrawable-animated:1.1.0] /Users/kalyan/.gradle/caches/transforms-3/298853276fbd0547d445067d5941c34d/transformed/vectordrawable-animated-1.1.0/AndroidManifest.xml:20:5-22:41
MERGED from [androidx.vectordrawable:vectordrawable-animated:1.1.0] /Users/kalyan/.gradle/caches/transforms-3/298853276fbd0547d445067d5941c34d/transformed/vectordrawable-animated-1.1.0/AndroidManifest.xml:20:5-22:41
MERGED from [androidx.vectordrawable:vectordrawable:1.1.0] /Users/kalyan/.gradle/caches/transforms-3/e693a6c7369d949203fe105466d56e87/transformed/vectordrawable-1.1.0/AndroidManifest.xml:20:5-22:41
MERGED from [androidx.vectordrawable:vectordrawable:1.1.0] /Users/kalyan/.gradle/caches/transforms-3/e693a6c7369d949203fe105466d56e87/transformed/vectordrawable-1.1.0/AndroidManifest.xml:20:5-22:41
MERGED from [androidx.viewpager2:viewpager2:1.0.0] /Users/kalyan/.gradle/caches/transforms-3/14b0453b0b66b72e5ca89a81fc9e35c2/transformed/jetified-viewpager2-1.0.0/AndroidManifest.xml:20:5-22:41
MERGED from [androidx.viewpager2:viewpager2:1.0.0] /Users/kalyan/.gradle/caches/transforms-3/14b0453b0b66b72e5ca89a81fc9e35c2/transformed/jetified-viewpager2-1.0.0/AndroidManifest.xml:20:5-22:41
MERGED from [androidx.lifecycle:lifecycle-process:2.2.0] /Users/kalyan/.gradle/caches/transforms-3/d71447b8886dc5f0aae44878c470fc12/transformed/jetified-lifecycle-process-2.2.0/AndroidManifest.xml:20:5-22:41
MERGED from [androidx.lifecycle:lifecycle-process:2.2.0] /Users/kalyan/.gradle/caches/transforms-3/d71447b8886dc5f0aae44878c470fc12/transformed/jetified-lifecycle-process-2.2.0/AndroidManifest.xml:20:5-22:41
MERGED from [androidx.lifecycle:lifecycle-service:2.2.0] /Users/kalyan/.gradle/caches/transforms-3/de3ebd331d4aa9bd916bbdad69e88978/transformed/jetified-lifecycle-service-2.2.0/AndroidManifest.xml:20:5-22:41
MERGED from [androidx.lifecycle:lifecycle-service:2.2.0] /Users/kalyan/.gradle/caches/transforms-3/de3ebd331d4aa9bd916bbdad69e88978/transformed/jetified-lifecycle-service-2.2.0/AndroidManifest.xml:20:5-22:41
MERGED from [androidx.dynamicanimation:dynamicanimation:1.0.0] /Users/kalyan/.gradle/caches/transforms-3/e13c118ad731f6988c31fb08c29d7079/transformed/dynamicanimation-1.0.0/AndroidManifest.xml:20:5-44
MERGED from [androidx.dynamicanimation:dynamicanimation:1.0.0] /Users/kalyan/.gradle/caches/transforms-3/e13c118ad731f6988c31fb08c29d7079/transformed/dynamicanimation-1.0.0/AndroidManifest.xml:20:5-44
MERGED from [androidx.media:media:1.0.0] /Users/kalyan/.gradle/caches/transforms-3/e8dd23fa8039625d8c797f054da63c96/transformed/media-1.0.0/AndroidManifest.xml:20:5-44
MERGED from [androidx.media:media:1.0.0] /Users/kalyan/.gradle/caches/transforms-3/e8dd23fa8039625d8c797f054da63c96/transformed/media-1.0.0/AndroidManifest.xml:20:5-44
MERGED from [androidx.legacy:legacy-support-core-utils:1.0.0] /Users/kalyan/.gradle/caches/transforms-3/f026862616309cd059f7d0956075850a/transformed/legacy-support-core-utils-1.0.0/AndroidManifest.xml:20:5-44
MERGED from [androidx.legacy:legacy-support-core-utils:1.0.0] /Users/kalyan/.gradle/caches/transforms-3/f026862616309cd059f7d0956075850a/transformed/legacy-support-core-utils-1.0.0/AndroidManifest.xml:20:5-44
MERGED from [androidx.recyclerview:recyclerview:1.1.0] /Users/kalyan/.gradle/caches/transforms-3/ed7fbc938671fd858eda8fe3c996e21c/transformed/recyclerview-1.1.0/AndroidManifest.xml:20:5-22:41
MERGED from [androidx.recyclerview:recyclerview:1.1.0] /Users/kalyan/.gradle/caches/transforms-3/ed7fbc938671fd858eda8fe3c996e21c/transformed/recyclerview-1.1.0/AndroidManifest.xml:20:5-22:41
MERGED from [androidx.navigation:navigation-fragment:2.3.5] /Users/kalyan/.gradle/caches/transforms-3/a7568e7bf1a15b4839886a239718d648/transformed/navigation-fragment-2.3.5/AndroidManifest.xml:20:5-22:41
MERGED from [androidx.navigation:navigation-fragment:2.3.5] /Users/kalyan/.gradle/caches/transforms-3/a7568e7bf1a15b4839886a239718d648/transformed/navigation-fragment-2.3.5/AndroidManifest.xml:20:5-22:41
MERGED from [androidx.fragment:fragment:1.2.4] /Users/kalyan/.gradle/caches/transforms-3/cdd9c286dbc16abf3c1a6c8336d7b83e/transformed/fragment-1.2.4/AndroidManifest.xml:20:5-22:41
MERGED from [androidx.fragment:fragment:1.2.4] /Users/kalyan/.gradle/caches/transforms-3/cdd9c286dbc16abf3c1a6c8336d7b83e/transformed/fragment-1.2.4/AndroidManifest.xml:20:5-22:41
MERGED from [androidx.drawerlayout:drawerlayout:1.1.1] /Users/kalyan/.gradle/caches/transforms-3/e27cb873651c83382deab0ae120468bd/transformed/drawerlayout-1.1.1/AndroidManifest.xml:20:5-22:41
MERGED from [androidx.drawerlayout:drawerlayout:1.1.1] /Users/kalyan/.gradle/caches/transforms-3/e27cb873651c83382deab0ae120468bd/transformed/drawerlayout-1.1.1/AndroidManifest.xml:20:5-22:41
MERGED from [androidx.viewpager:viewpager:1.0.0] /Users/kalyan/.gradle/caches/transforms-3/1f7a727efc8eb90cb8e7d6f6310167b5/transformed/viewpager-1.0.0/AndroidManifest.xml:20:5-44
MERGED from [androidx.viewpager:viewpager:1.0.0] /Users/kalyan/.gradle/caches/transforms-3/1f7a727efc8eb90cb8e7d6f6310167b5/transformed/viewpager-1.0.0/AndroidManifest.xml:20:5-44
MERGED from [androidx.slidingpanelayout:slidingpanelayout:1.0.0] /Users/kalyan/.gradle/caches/transforms-3/d8503713e002bd5aca22eed6668b775c/transformed/slidingpanelayout-1.0.0/AndroidManifest.xml:20:5-44
MERGED from [androidx.slidingpanelayout:slidingpanelayout:1.0.0] /Users/kalyan/.gradle/caches/transforms-3/d8503713e002bd5aca22eed6668b775c/transformed/slidingpanelayout-1.0.0/AndroidManifest.xml:20:5-44
MERGED from [androidx.customview:customview:1.1.0] /Users/kalyan/.gradle/caches/transforms-3/42fb352f709b3841a2ac5a8263635bae/transformed/customview-1.1.0/AndroidManifest.xml:20:5-22:41
MERGED from [androidx.customview:customview:1.1.0] /Users/kalyan/.gradle/caches/transforms-3/42fb352f709b3841a2ac5a8263635bae/transformed/customview-1.1.0/AndroidManifest.xml:20:5-22:41
MERGED from [androidx.transition:transition:1.3.0] /Users/kalyan/.gradle/caches/transforms-3/1f03f42c870bb555ddab84e0b427b932/transformed/transition-1.3.0/AndroidManifest.xml:20:5-22:41
MERGED from [androidx.transition:transition:1.3.0] /Users/kalyan/.gradle/caches/transforms-3/1f03f42c870bb555ddab84e0b427b932/transformed/transition-1.3.0/AndroidManifest.xml:20:5-22:41
MERGED from [androidx.loader:loader:1.0.0] /Users/kalyan/.gradle/caches/transforms-3/1aa105dfc37cc2f2c39ec6ca114f2a60/transformed/loader-1.0.0/AndroidManifest.xml:20:5-44
MERGED from [androidx.loader:loader:1.0.0] /Users/kalyan/.gradle/caches/transforms-3/1aa105dfc37cc2f2c39ec6ca114f2a60/transformed/loader-1.0.0/AndroidManifest.xml:20:5-44
MERGED from [androidx.swiperefreshlayout:swiperefreshlayout:1.0.0] /Users/kalyan/.gradle/caches/transforms-3/50d428aad0292bb13fb4e6826c4c9ee8/transformed/swiperefreshlayout-1.0.0/AndroidManifest.xml:20:5-44
MERGED from [androidx.swiperefreshlayout:swiperefreshlayout:1.0.0] /Users/kalyan/.gradle/caches/transforms-3/50d428aad0292bb13fb4e6826c4c9ee8/transformed/swiperefreshlayout-1.0.0/AndroidManifest.xml:20:5-44
MERGED from [androidx.asynclayoutinflater:asynclayoutinflater:1.0.0] /Users/kalyan/.gradle/caches/transforms-3/7a2ea0c0355388bedc0c856f3981591a/transformed/asynclayoutinflater-1.0.0/AndroidManifest.xml:20:5-44
MERGED from [androidx.asynclayoutinflater:asynclayoutinflater:1.0.0] /Users/kalyan/.gradle/caches/transforms-3/7a2ea0c0355388bedc0c856f3981591a/transformed/asynclayoutinflater-1.0.0/AndroidManifest.xml:20:5-44
MERGED from [androidx.navigation:navigation-runtime:2.3.5] /Users/kalyan/.gradle/caches/transforms-3/bdb6d3a2139067806b21540349c99613/transformed/navigation-runtime-2.3.5/AndroidManifest.xml:20:5-22:41
MERGED from [androidx.navigation:navigation-runtime:2.3.5] /Users/kalyan/.gradle/caches/transforms-3/bdb6d3a2139067806b21540349c99613/transformed/navigation-runtime-2.3.5/AndroidManifest.xml:20:5-22:41
MERGED from [androidx.activity:activity:1.1.0] /Users/kalyan/.gradle/caches/transforms-3/ae28ddae058a6f3dea3a0754b9fc16d8/transformed/jetified-activity-1.1.0/AndroidManifest.xml:20:5-22:41
MERGED from [androidx.activity:activity:1.1.0] /Users/kalyan/.gradle/caches/transforms-3/ae28ddae058a6f3dea3a0754b9fc16d8/transformed/jetified-activity-1.1.0/AndroidManifest.xml:20:5-22:41
MERGED from [androidx.navigation:navigation-common:2.3.5] /Users/kalyan/.gradle/caches/transforms-3/5efcc1706e3b10a8fb6805c6d7a70944/transformed/navigation-common-2.3.5/AndroidManifest.xml:20:5-22:41
MERGED from [androidx.navigation:navigation-common:2.3.5] /Users/kalyan/.gradle/caches/transforms-3/5efcc1706e3b10a8fb6805c6d7a70944/transformed/navigation-common-2.3.5/AndroidManifest.xml:20:5-22:41
MERGED from [androidx.core:core:1.3.1] /Users/kalyan/.gradle/caches/transforms-3/78a931a756e40bf0a6127df06e538032/transformed/core-1.3.1/AndroidManifest.xml:20:5-22:41
MERGED from [androidx.core:core:1.3.1] /Users/kalyan/.gradle/caches/transforms-3/78a931a756e40bf0a6127df06e538032/transformed/core-1.3.1/AndroidManifest.xml:20:5-22:41
MERGED from [androidx.lifecycle:lifecycle-runtime-ktx:2.2.0] /Users/kalyan/.gradle/caches/transforms-3/b68852aebb9d4c7ad4483720d5640193/transformed/jetified-lifecycle-runtime-ktx-2.2.0/AndroidManifest.xml:20:5-22:41
MERGED from [androidx.lifecycle:lifecycle-runtime-ktx:2.2.0] /Users/kalyan/.gradle/caches/transforms-3/b68852aebb9d4c7ad4483720d5640193/transformed/jetified-lifecycle-runtime-ktx-2.2.0/AndroidManifest.xml:20:5-22:41
MERGED from [androidx.lifecycle:lifecycle-runtime:2.2.0] /Users/kalyan/.gradle/caches/transforms-3/dc65f739508dc6e0622647cf7a4705ba/transformed/lifecycle-runtime-2.2.0/AndroidManifest.xml:20:5-22:41
MERGED from [androidx.lifecycle:lifecycle-runtime:2.2.0] /Users/kalyan/.gradle/caches/transforms-3/dc65f739508dc6e0622647cf7a4705ba/transformed/lifecycle-runtime-2.2.0/AndroidManifest.xml:20:5-22:41
MERGED from [androidx.lifecycle:lifecycle-livedata:2.3.1] /Users/kalyan/.gradle/caches/transforms-3/b7919f8f6ae54b5e92b5acdb56961787/transformed/lifecycle-livedata-2.3.1/AndroidManifest.xml:20:5-22:41
MERGED from [androidx.lifecycle:lifecycle-livedata:2.3.1] /Users/kalyan/.gradle/caches/transforms-3/b7919f8f6ae54b5e92b5acdb56961787/transformed/lifecycle-livedata-2.3.1/AndroidManifest.xml:20:5-22:41
MERGED from [androidx.lifecycle:lifecycle-livedata-core-ktx:2.3.1] /Users/kalyan/.gradle/caches/transforms-3/4daa4d363f741ecf92c29b5f113e7839/transformed/jetified-lifecycle-livedata-core-ktx-2.3.1/AndroidManifest.xml:20:5-22:41
MERGED from [androidx.lifecycle:lifecycle-livedata-core-ktx:2.3.1] /Users/kalyan/.gradle/caches/transforms-3/4daa4d363f741ecf92c29b5f113e7839/transformed/jetified-lifecycle-livedata-core-ktx-2.3.1/AndroidManifest.xml:20:5-22:41
MERGED from [androidx.lifecycle:lifecycle-viewmodel-savedstate:2.2.0] /Users/kalyan/.gradle/caches/transforms-3/fad468928d18f3f9352361826dfccbe1/transformed/jetified-lifecycle-viewmodel-savedstate-2.2.0/AndroidManifest.xml:20:5-22:41
MERGED from [androidx.lifecycle:lifecycle-viewmodel-savedstate:2.2.0] /Users/kalyan/.gradle/caches/transforms-3/fad468928d18f3f9352361826dfccbe1/transformed/jetified-lifecycle-viewmodel-savedstate-2.2.0/AndroidManifest.xml:20:5-22:41
MERGED from [androidx.lifecycle:lifecycle-livedata-core:2.3.1] /Users/kalyan/.gradle/caches/transforms-3/bd1899995e70c0e5cd8141fdf188d0e7/transformed/lifecycle-livedata-core-2.3.1/AndroidManifest.xml:20:5-22:41
MERGED from [androidx.lifecycle:lifecycle-livedata-core:2.3.1] /Users/kalyan/.gradle/caches/transforms-3/bd1899995e70c0e5cd8141fdf188d0e7/transformed/lifecycle-livedata-core-2.3.1/AndroidManifest.xml:20:5-22:41
MERGED from [androidx.arch.core:core-runtime:2.1.0] /Users/kalyan/.gradle/caches/transforms-3/cdd443631222030000d1a7f27e7ef56f/transformed/core-runtime-2.1.0/AndroidManifest.xml:20:5-22:41
MERGED from [androidx.arch.core:core-runtime:2.1.0] /Users/kalyan/.gradle/caches/transforms-3/cdd443631222030000d1a7f27e7ef56f/transformed/core-runtime-2.1.0/AndroidManifest.xml:20:5-22:41
MERGED from [androidx.savedstate:savedstate:1.0.0] /Users/kalyan/.gradle/caches/transforms-3/87489455d45b4e8082d8bf833d66004e/transformed/jetified-savedstate-1.0.0/AndroidManifest.xml:20:5-22:41
MERGED from [androidx.savedstate:savedstate:1.0.0] /Users/kalyan/.gradle/caches/transforms-3/87489455d45b4e8082d8bf833d66004e/transformed/jetified-savedstate-1.0.0/AndroidManifest.xml:20:5-22:41
MERGED from [androidx.lifecycle:lifecycle-viewmodel:2.3.1] /Users/kalyan/.gradle/caches/transforms-3/a0be7985590145e502db327e92629b3d/transformed/lifecycle-viewmodel-2.3.1/AndroidManifest.xml:20:5-22:41
MERGED from [androidx.lifecycle:lifecycle-viewmodel:2.3.1] /Users/kalyan/.gradle/caches/transforms-3/a0be7985590145e502db327e92629b3d/transformed/lifecycle-viewmodel-2.3.1/AndroidManifest.xml:20:5-22:41
MERGED from [com.github.bumptech.glide:gifdecoder:4.12.0] /Users/kalyan/.gradle/caches/transforms-3/390f55402124fb841dc2a066fb2a236e/transformed/jetified-gifdecoder-4.12.0/AndroidManifest.xml:5:5-7:41
MERGED from [com.github.bumptech.glide:gifdecoder:4.12.0] /Users/kalyan/.gradle/caches/transforms-3/390f55402124fb841dc2a066fb2a236e/transformed/jetified-gifdecoder-4.12.0/AndroidManifest.xml:5:5-7:41
MERGED from [androidx.exifinterface:exifinterface:1.2.0] /Users/kalyan/.gradle/caches/transforms-3/d031bc7738248c1d54da2eed59376879/transformed/exifinterface-1.2.0/AndroidManifest.xml:20:5-22:41
MERGED from [androidx.exifinterface:exifinterface:1.2.0] /Users/kalyan/.gradle/caches/transforms-3/d031bc7738248c1d54da2eed59376879/transformed/exifinterface-1.2.0/AndroidManifest.xml:20:5-22:41
MERGED from [androidx.versionedparcelable:versionedparcelable:1.1.0] /Users/kalyan/.gradle/caches/transforms-3/07ee5ca89ba5268e842c9373de933cd8/transformed/versionedparcelable-1.1.0/AndroidManifest.xml:20:5-22:41
MERGED from [androidx.versionedparcelable:versionedparcelable:1.1.0] /Users/kalyan/.gradle/caches/transforms-3/07ee5ca89ba5268e842c9373de933cd8/transformed/versionedparcelable-1.1.0/AndroidManifest.xml:20:5-22:41
MERGED from [androidx.documentfile:documentfile:1.0.0] /Users/kalyan/.gradle/caches/transforms-3/708b40dd8c215e8bf00436275ede3d90/transformed/documentfile-1.0.0/AndroidManifest.xml:20:5-44
MERGED from [androidx.documentfile:documentfile:1.0.0] /Users/kalyan/.gradle/caches/transforms-3/708b40dd8c215e8bf00436275ede3d90/transformed/documentfile-1.0.0/AndroidManifest.xml:20:5-44
MERGED from [androidx.localbroadcastmanager:localbroadcastmanager:1.0.0] /Users/kalyan/.gradle/caches/transforms-3/745d319d1cc30c824f9f189be8d1e5c9/transformed/localbroadcastmanager-1.0.0/AndroidManifest.xml:20:5-44
MERGED from [androidx.localbroadcastmanager:localbroadcastmanager:1.0.0] /Users/kalyan/.gradle/caches/transforms-3/745d319d1cc30c824f9f189be8d1e5c9/transformed/localbroadcastmanager-1.0.0/AndroidManifest.xml:20:5-44
MERGED from [androidx.print:print:1.0.0] /Users/kalyan/.gradle/caches/transforms-3/89e2ec7243d3e50b3cf4c10cbe20c115/transformed/print-1.0.0/AndroidManifest.xml:20:5-44
MERGED from [androidx.print:print:1.0.0] /Users/kalyan/.gradle/caches/transforms-3/89e2ec7243d3e50b3cf4c10cbe20c115/transformed/print-1.0.0/AndroidManifest.xml:20:5-44
MERGED from [androidx.interpolator:interpolator:1.0.0] /Users/kalyan/.gradle/caches/transforms-3/eeb53713ccbeae8391235ff6932b1471/transformed/interpolator-1.0.0/AndroidManifest.xml:20:5-44
MERGED from [androidx.interpolator:interpolator:1.0.0] /Users/kalyan/.gradle/caches/transforms-3/eeb53713ccbeae8391235ff6932b1471/transformed/interpolator-1.0.0/AndroidManifest.xml:20:5-44
MERGED from [androidx.cursoradapter:cursoradapter:1.0.0] /Users/kalyan/.gradle/caches/transforms-3/be9b2eecb83e92fdafe8b974d770efba/transformed/cursoradapter-1.0.0/AndroidManifest.xml:20:5-44
MERGED from [androidx.cursoradapter:cursoradapter:1.0.0] /Users/kalyan/.gradle/caches/transforms-3/be9b2eecb83e92fdafe8b974d770efba/transformed/cursoradapter-1.0.0/AndroidManifest.xml:20:5-44
MERGED from [androidx.annotation:annotation-experimental:1.0.0] /Users/kalyan/.gradle/caches/transforms-3/2b704759e44d04034bf9a309cb35cd05/transformed/jetified-annotation-experimental-1.0.0/AndroidManifest.xml:20:5-22:41
MERGED from [androidx.annotation:annotation-experimental:1.0.0] /Users/kalyan/.gradle/caches/transforms-3/2b704759e44d04034bf9a309cb35cd05/transformed/jetified-annotation-experimental-1.0.0/AndroidManifest.xml:20:5-22:41
INJECTED from /Users/kalyan/Desktop/sources/19910702-KalyanKannaiahgari-nycschools/app/src/main/AndroidManifest.xml
INJECTED from /Users/kalyan/Desktop/sources/19910702-KalyanKannaiahgari-nycschools/app/src/main/AndroidManifest.xml
	android:targetSdkVersion
		INJECTED from /Users/kalyan/Desktop/sources/19910702-KalyanKannaiahgari-nycschools/app/src/main/AndroidManifest.xml
		ADDED from /Users/kalyan/Desktop/sources/19910702-KalyanKannaiahgari-nycschools/app/src/main/AndroidManifest.xml
		INJECTED from /Users/kalyan/Desktop/sources/19910702-KalyanKannaiahgari-nycschools/app/src/main/AndroidManifest.xml
	android:minSdkVersion
		INJECTED from /Users/kalyan/Desktop/sources/19910702-KalyanKannaiahgari-nycschools/app/src/main/AndroidManifest.xml
		ADDED from /Users/kalyan/Desktop/sources/19910702-KalyanKannaiahgari-nycschools/app/src/main/AndroidManifest.xml
		INJECTED from /Users/kalyan/Desktop/sources/19910702-KalyanKannaiahgari-nycschools/app/src/main/AndroidManifest.xml
provider#androidx.lifecycle.ProcessLifecycleOwnerInitializer
ADDED from [androidx.lifecycle:lifecycle-process:2.2.0] /Users/kalyan/.gradle/caches/transforms-3/d71447b8886dc5f0aae44878c470fc12/transformed/jetified-lifecycle-process-2.2.0/AndroidManifest.xml:25:9-29:43
	android:authorities
		ADDED from [androidx.lifecycle:lifecycle-process:2.2.0] /Users/kalyan/.gradle/caches/transforms-3/d71447b8886dc5f0aae44878c470fc12/transformed/jetified-lifecycle-process-2.2.0/AndroidManifest.xml:27:13-69
	android:multiprocess
		ADDED from [androidx.lifecycle:lifecycle-process:2.2.0] /Users/kalyan/.gradle/caches/transforms-3/d71447b8886dc5f0aae44878c470fc12/transformed/jetified-lifecycle-process-2.2.0/AndroidManifest.xml:29:13-40
	android:exported
		ADDED from [androidx.lifecycle:lifecycle-process:2.2.0] /Users/kalyan/.gradle/caches/transforms-3/d71447b8886dc5f0aae44878c470fc12/transformed/jetified-lifecycle-process-2.2.0/AndroidManifest.xml:28:13-37
	android:name
		ADDED from [androidx.lifecycle:lifecycle-process:2.2.0] /Users/kalyan/.gradle/caches/transforms-3/d71447b8886dc5f0aae44878c470fc12/transformed/jetified-lifecycle-process-2.2.0/AndroidManifest.xml:26:13-79
